w3e3
…
caro60 <- caro60 %>%
  rowwise() %>%
  mutate(
    stepMean = mean(c(nMinus3,nMinus2, nMinus1,nPlus1,nPlus2, nPlus3))
  ) %>%
  ungroup()
caro60

## # A tibble: 200 x 13
##    TierID TierName CollarID DatetimeUTC                E       N nMinus3 nMinus2
##    <chr>  <chr>       <dbl> <dttm>                 <dbl>   <dbl>   <dbl>   <dbl>
##  1 010C   Caro        13973 2015-09-15 08:07:00 2570589.  1.21e6    NA      NA  
##  2 010C   Caro        13973 2015-09-15 08:08:00 2570573.  1.21e6    NA      NA  
##  3 010C   Caro        13973 2015-09-15 08:09:00 2570536.  1.21e6    NA      52.4
##  4 010C   Caro        13973 2015-09-15 08:10:00 2570518.  1.21e6    73.6    58.4
##  5 010C   Caro        13973 2015-09-15 08:11:00 2570499.  1.21e6    81.8    49.2
##  6 010C   Caro        13973 2015-09-15 08:12:00 2570489.  1.21e6    56.9    32.6
##  7 010C   Caro        13973 2015-09-15 08:13:00 2570482.  1.21e6    36.6    18.0
##  8 010C   Caro        13973 2015-09-15 08:14:00 2570481.  1.21e6    28.7    23.4
##  9 010C   Caro        13973 2015-09-15 08:15:00 2570486.  1.21e6    31.0    24.7
## 10 010C   Caro        13973 2015-09-15 08:16:00 2570490.  1.21e6    24.7    12.4
## # ... with 190 more rows, and 5 more variables: nMinus1 <dbl>, nPlus1 <dbl>,
## #   nPlus2 <dbl>, nPlus3 <dbl>, stepMean <dbl>
…
